{
    "document_back": {
        "id": "cabda8ad-b5c8-46d7-8e47-9fbe98e8065a",
        "side": "back",
        "type": "national_identity_card"
    },
    "document_front": {
        "id": "3b23a348-f524-4ea1-a60a-7e9a97370421",
        "side": "front",
        "type": "national_identity_card"
    },
    "face": {
        "id": "e964006b-5b09-43ef-9717-b5cfa09344be",
        "variant": "video"
    }
}